[
    {
       "id":1,
       "name":"tommy",
       "breed":"labrador retriever",
       "colour":"chocolate",
       "age":5.4,
       "next_checkup":"2019-12-27",
       "vaccinations":["Distemper shot", "Kennel Cough", "Dog Flu", "Rabies"]
    },
    {
       "id":2,
       "name":"jia",
       "breed":"english mastiff",
       "colour":"yellow",
       "age":6,
       "next_checkup":"2020-1-2",
       "vaccinations":["Distemper shot", "Kennel Cough", "Dog Flu", "Rabies"]
    },
    {
       "id":3,
       "name":"xena",
       "breed":"golden retriever",
       "colour":"yellow",
       "age":4.5,
       "next_checkup":"2020-2-6",
       "vaccinations":["Distemper shot", "Kennel Cough", "Dog Flu", "Rabies"]
    },
    {
       "id":4,
       "name":"bruno",
       "breed":"tibetan mastiff",
       "colour":"black",
       "age":3,
       "next_checkup":"2020-6-10",
       "vaccinations":["Distemper shot", "Kennel Cough", "Dog Flu", "Rabies"]
    },
    {
       "id":5,
       "name":"peanut",
       "breed":"beagle",
       "colour":"black/brown",
       "age":9,
       "next_checkup":"2019-12-10",
       "vaccinations":["Distemper shot", "Kennel Cough", "Dog Flu", "Rabies"]
    },
    {
       "id":6,
       "name":"tyson",
       "breed":"gaddi",
       "colour":"black",
       "age":0.4,
       "next_checkup":"2020-1-15",
       "vaccinations":["Distemper shot", "Rabies"]
    }
 ]